<svg width="230" height="48" viewBox="0 0 230 48" fill="none" xmlns="http://www.w3.org/2000/svg">
<path d="M28.1552 0.151822C23.4985 -0.373551 18.9851 0.486151 15.0687 2.3966C20.5373 4.25929 25.4328 6.38466 29.6836 8.6772C30.1851 8.70108 30.6866 8.72496 31.1881 8.77272C41.8388 9.96675 49.4806 19.5667 48.2866 30.2175C48.2388 30.7429 48.1433 31.2444 48.0478 31.7459C48.6209 30.0981 49.0269 28.3787 49.2179 26.5638C50.6985 13.4533 41.2657 1.63242 28.1552 0.151822Z" fill="#6D6D6D"/>
<path d="M26.8418 47.316C18.2448 46.3369 11.606 39.8891 10.006 31.8413C7.59403 31.0772 5.01493 30.3608 2.3403 29.6682C4.6806 39.0533 12.6567 46.4563 22.8299 47.6025C25.1224 47.8652 27.3672 47.7936 29.5164 47.4115C28.6328 47.4593 27.7254 47.4115 26.8418 47.316Z" fill="#6D6D6D"/>
<path d="M17.7433 27.8533C12.8478 25.7757 7.18807 23.9369 0.979111 22.3369L1.38508 27.9727C5.89851 29.0712 10.1015 30.2892 13.8508 31.5787C22.1612 34.4205 31.6657 38.8862 33.003 43.5668C33.2418 44.4026 33.003 45.9548 32.1194 46.8145C34.006 45.6683 34.9851 43.2563 34.6746 41.3459C33.9821 37.2145 28.4657 32.3668 17.7433 27.8533Z" fill="url(#paint0_linear_353_3412)"/>
<path d="M23.0687 22.0265C16.6687 18.922 8.97911 16.0086 0.429855 13.9788L0.859706 20.5459C7.35523 22.1937 13.2776 24.1041 18.3881 26.2773C30.0179 31.1728 36.4657 36.6414 35.9642 41.8952C35.8209 43.4235 35.2955 44.9519 33.8627 46.2414C37.7552 44.331 38.9731 41.1788 39.1403 38.528C39.4746 32.9877 33.7194 27.2564 23.0687 22.0265Z" fill="url(#paint1_linear_353_3412)"/>
<path d="M0 0.295166L0.334328 11.925C9.19403 14.0026 17.1701 17.2504 23.7851 20.4743C35.2955 26.1101 41.4328 32.6773 40.5254 38.934C40.1672 41.3459 38.8299 43.2325 36.8955 44.8086C43.5104 40.9638 46.4 36.2593 46.9015 31.8414C48.191 20.4982 29.3731 6.62352 0 0.295166Z" fill="url(#paint2_linear_353_3412)"/>
<path d="M61.4209 33.9189V15.1965H66.0299L71.2119 27.7816H71.4507L76.6328 15.1965H81.2418V33.9189H77.6119V21.4055H77.397L72.6448 32.8443H70.0418L65.2657 21.4055H65.0507V33.9189H61.4209Z" fill="#6D6D6D"/>
<path fill-rule="evenodd" clip-rule="evenodd" d="M96.7403 31.6502C97.0985 31.1249 97.3612 30.504 97.5045 29.8353V29.8114H94.0179C93.803 30.289 93.4687 30.6472 92.9672 30.9099C92.4896 31.1726 91.8448 31.292 91.1045 31.292C90.603 31.292 90.1731 31.2204 89.7672 31.0532C89.3612 30.886 89.0269 30.6472 88.7403 30.3607C88.4537 30.0741 88.2388 29.7159 88.0716 29.286C87.9045 28.8801 87.809 28.3786 87.809 27.8532V27.6622H97.6239V26.5159C97.6239 25.3935 97.4806 24.3666 97.1702 23.4831C96.8597 22.5995 96.4299 21.8353 95.8567 21.2144C95.2836 20.6174 94.5911 20.1398 93.7552 19.8054C92.9433 19.4711 91.9881 19.304 90.9373 19.304C89.8627 19.304 88.9075 19.4711 88.0716 19.8293C87.2119 20.1875 86.4955 20.689 85.8985 21.3338C85.3015 21.9786 84.8478 22.7666 84.5373 23.698C84.2269 24.6293 84.0597 25.6801 84.0597 26.8502C84.0597 27.9965 84.2269 29.0472 84.5373 29.9547C84.8478 30.8622 85.3015 31.6263 85.8985 32.2711C86.4955 32.9159 87.2119 33.3935 88.0716 33.7278C88.9313 34.0622 89.8866 34.2293 90.9851 34.2293C91.8448 34.2293 92.6567 34.1099 93.397 33.9189C94.1373 33.704 94.7821 33.4174 95.3552 33.0353C95.9045 32.6532 96.3821 32.1995 96.7403 31.6502ZM89.7194 22.4084C90.1015 22.2651 90.5075 22.1935 90.9373 22.1935C91.8209 22.1935 92.5373 22.4562 93.0627 23.0054C93.5881 23.5547 93.8746 24.295 93.9224 25.2502H87.8328C87.8567 24.7726 87.9522 24.3666 88.1194 23.9846C88.2627 23.6263 88.5015 23.292 88.7642 23.0293C89.0269 22.7666 89.3612 22.5517 89.7194 22.4084Z" fill="#6D6D6D"/>
<path d="M100.036 19.6146H103.69V21.9071H103.928C104.024 21.5489 104.191 21.2146 104.406 20.9041C104.621 20.5937 104.907 20.331 105.218 20.1161C105.528 19.9012 105.91 19.7101 106.293 19.5907C106.699 19.4713 107.128 19.3997 107.582 19.3997C107.845 19.3997 108.107 19.4235 108.394 19.4474C108.681 19.4713 108.896 19.5191 109.063 19.5907V23.0295C108.991 23.0056 108.872 22.9817 108.728 22.934C108.585 22.9101 108.442 22.8862 108.275 22.8623C108.107 22.8385 107.94 22.8146 107.773 22.8146C107.606 22.7907 107.439 22.7907 107.272 22.7907C106.746 22.7907 106.293 22.8623 105.863 23.0056C105.433 23.1489 105.075 23.3638 104.764 23.6504C104.454 23.937 104.215 24.2713 104.048 24.6773C103.881 25.0832 103.785 25.5131 103.785 26.0146V33.9191H100.012V19.6146H100.036Z" fill="#6D6D6D"/>
<path fill-rule="evenodd" clip-rule="evenodd" d="M112.955 33.8234C113.528 34.0383 114.149 34.1338 114.842 34.1338C115.773 34.1338 116.609 33.9428 117.373 33.5846C118.09 33.2263 118.639 32.7249 119.021 32.0562H119.26V33.9189H122.913V24.1756C122.913 23.4114 122.77 22.7189 122.507 22.1219C122.245 21.5249 121.863 20.9995 121.361 20.5935C120.86 20.1875 120.239 19.8532 119.499 19.6383C118.758 19.4234 117.899 19.304 116.967 19.304C116.06 19.304 115.248 19.3995 114.507 19.5905C113.767 19.7816 113.122 20.0681 112.573 20.4502C112.024 20.8323 111.594 21.286 111.26 21.8114C110.949 22.3607 110.758 22.9338 110.687 23.6025H114.173C114.316 23.1726 114.627 22.8383 115.057 22.6234C115.51 22.4084 116.06 22.289 116.752 22.289C117.54 22.289 118.137 22.4323 118.543 22.7666C118.949 23.101 119.164 23.5547 119.164 24.1517V25.3219L115.725 25.5368C113.934 25.6323 112.573 26.0383 111.618 26.7786C110.663 27.5189 110.185 28.5219 110.185 29.8353C110.185 30.4801 110.281 31.0771 110.519 31.6025C110.734 32.1278 111.069 32.5816 111.475 32.9637C111.881 33.3219 112.382 33.6084 112.955 33.8234ZM117.301 31.101C116.919 31.2204 116.513 31.292 116.084 31.292C115.439 31.292 114.913 31.1487 114.484 30.8622C114.078 30.5517 113.863 30.1219 113.863 29.5965C113.863 28.5696 114.675 27.9965 116.275 27.8771L119.164 27.686V28.7368C119.164 29.095 119.093 29.4293 118.925 29.7398C118.782 30.0502 118.567 30.3129 118.281 30.5517C117.994 30.7905 117.684 30.9816 117.301 31.101Z" fill="#6D6D6D"/>
<path fill-rule="evenodd" clip-rule="evenodd" d="M126.925 17.4652C127.212 17.5607 127.522 17.6085 127.857 17.6085C128.191 17.6085 128.501 17.5607 128.764 17.4652C129.027 17.3697 129.266 17.2264 129.457 17.0592C129.648 16.8921 129.791 16.701 129.91 16.4622C130.03 16.2234 130.078 15.9846 130.078 15.698C130.078 15.4115 130.03 15.1488 129.91 14.91C129.791 14.6712 129.648 14.4801 129.457 14.313C129.266 14.1458 129.027 14.0264 128.764 13.9309C128.501 13.8354 128.191 13.7876 127.857 13.7876C127.499 13.7876 127.212 13.8354 126.925 13.9309C126.639 14.0264 126.4 14.1458 126.209 14.313C126.018 14.4801 125.851 14.6712 125.755 14.91C125.636 15.1488 125.588 15.4115 125.588 15.698C125.588 15.9846 125.66 16.2234 125.755 16.4622C125.875 16.701 126.018 16.8921 126.209 17.0592C126.424 17.2264 126.639 17.3697 126.925 17.4652ZM129.743 33.9189V19.6145H125.97V33.9189H129.743Z" fill="#6D6D6D"/>
<path d="M132.561 23.8174C132.561 23.1487 132.704 22.5278 132.991 21.9786C133.278 21.4293 133.684 20.9517 134.209 20.5457C134.734 20.1637 135.355 19.8532 136.096 19.6383C136.836 19.4234 137.648 19.304 138.531 19.304C140.346 19.304 141.779 19.6622 142.806 20.4025C143.833 21.1428 144.406 22.1935 144.501 23.5547H141.015C140.919 23.0771 140.657 22.7189 140.227 22.4562C139.797 22.1935 139.248 22.0502 138.531 22.0502C138.197 22.0502 137.887 22.098 137.6 22.1696C137.313 22.2413 137.075 22.3368 136.86 22.4801C136.645 22.6234 136.478 22.7666 136.358 22.9577C136.239 23.1487 136.191 23.3398 136.191 23.5786C136.191 23.9368 136.358 24.2234 136.669 24.4383C136.979 24.6532 137.457 24.8443 138.125 24.9875L140.8 25.5607C141.493 25.7278 142.09 25.895 142.591 26.1338C143.093 26.3487 143.522 26.6353 143.833 26.9457C144.167 27.2562 144.406 27.6383 144.573 28.0443C144.74 28.4502 144.812 28.9278 144.812 29.4771C144.812 30.1935 144.669 30.8383 144.358 31.4114C144.048 31.9846 143.618 32.486 143.069 32.892C142.519 33.298 141.851 33.6323 141.087 33.8472C140.322 34.0622 139.463 34.1816 138.531 34.1816C137.6 34.1816 136.74 34.086 136 33.895C135.26 33.704 134.615 33.4174 134.066 33.0592C133.54 32.701 133.11 32.2472 132.8 31.7219C132.49 31.1965 132.299 30.5756 132.227 29.8831H135.904C136.048 30.3846 136.358 30.7428 136.788 31.0293C137.242 31.292 137.839 31.4353 138.603 31.4353C138.961 31.4353 139.296 31.3875 139.606 31.3159C139.916 31.2443 140.179 31.1487 140.394 31.0054C140.609 30.8622 140.776 30.7189 140.896 30.5278C141.015 30.3368 141.087 30.1219 141.087 29.9069C141.087 29.5487 140.943 29.2622 140.657 29.0472C140.37 28.8323 139.916 28.6413 139.272 28.498L136.669 27.9249C135.284 27.6144 134.233 27.1368 133.564 26.4681C132.896 25.7995 132.561 24.9159 132.561 23.8174Z" fill="#6D6D6D"/>
<path d="M169.696 29.6682C169.313 30.6712 168.764 31.5309 168.048 32.2234C167.331 32.916 166.448 33.4652 165.445 33.8473C164.418 34.2294 163.272 34.4204 161.982 34.4204C160.597 34.4204 159.331 34.1816 158.233 33.7279C157.134 33.2742 156.179 32.6294 155.415 31.7697C154.651 30.9339 154.054 29.8831 153.624 28.6652C153.218 27.4473 153.003 26.0622 153.003 24.5339C153.003 23.0294 153.218 21.6682 153.624 20.4503C154.03 19.2324 154.627 18.2055 155.391 17.3458C156.155 16.51 157.087 15.8413 158.185 15.3876C159.284 14.9339 160.501 14.6951 161.887 14.6951C162.985 14.6951 164.012 14.8384 164.967 15.1488C165.899 15.4592 166.734 15.8891 167.451 16.4622C168.167 17.0354 168.764 17.704 169.218 18.4921C169.672 19.2801 169.982 20.1637 170.101 21.1428H166.209C165.922 20.1876 165.397 19.4473 164.657 18.9219C163.916 18.3966 162.985 18.1339 161.887 18.1339C161.146 18.1339 160.454 18.2772 159.857 18.5637C159.26 18.8503 158.734 19.2801 158.328 19.8055C157.899 20.3548 157.588 21.0234 157.373 21.7876C157.158 22.5757 157.039 23.4592 157.039 24.4384C157.039 25.4413 157.158 26.3488 157.397 27.1369C157.636 27.9249 157.97 28.6175 158.4 29.1667C158.83 29.716 159.355 30.1458 160 30.4324C160.621 30.7189 161.313 30.8622 162.078 30.8622C162.722 30.8622 163.296 30.7667 163.845 30.5995C164.37 30.4085 164.848 30.1697 165.23 29.8354C165.612 29.501 165.922 29.1189 166.137 28.6413C166.352 28.1637 166.472 27.6622 166.496 27.0891L166.519 26.7548H162.46V23.8891H170.269V26.2772C170.269 27.5189 170.078 28.6652 169.696 29.6682Z" fill="#6D6D6D"/>
<path d="M172.967 19.6146H176.621V21.9071H176.86C176.955 21.5489 177.122 21.2146 177.337 20.9041C177.552 20.5937 177.839 20.331 178.149 20.1161C178.46 19.9012 178.842 19.7101 179.224 19.5907C179.63 19.4713 180.06 19.3997 180.513 19.3997C180.776 19.3997 181.039 19.4235 181.325 19.4474C181.612 19.4713 181.827 19.5191 181.994 19.5907V23.0295C181.922 23.0056 181.803 22.9817 181.66 22.934C181.516 22.9101 181.373 22.8862 181.206 22.8623C181.039 22.8385 180.872 22.8146 180.704 22.8146C180.537 22.7907 180.37 22.7907 180.203 22.7907C179.678 22.7907 179.224 22.8623 178.794 23.0056C178.364 23.1489 178.006 23.3638 177.696 23.6504C177.385 23.937 177.146 24.2713 176.979 24.6773C176.812 25.0832 176.716 25.5131 176.716 26.0146V33.9191H172.943V19.6146H172.967Z" fill="#6D6D6D"/>
<path fill-rule="evenodd" clip-rule="evenodd" d="M187.248 33.7278C188.131 34.0622 189.11 34.2293 190.209 34.2293C191.307 34.2293 192.287 34.0622 193.17 33.7278C194.054 33.3935 194.794 32.892 195.391 32.2472C195.988 31.6025 196.466 30.8144 196.776 29.8831C197.087 28.9756 197.254 27.9249 197.254 26.7547C197.254 25.5846 197.11 24.5577 196.776 23.6263C196.442 22.7189 195.988 21.9308 195.367 21.286C194.746 20.6413 194.006 20.1398 193.146 19.8054C192.287 19.4711 191.307 19.304 190.209 19.304C189.11 19.304 188.131 19.4711 187.272 19.8054C186.388 20.1398 185.672 20.6413 185.051 21.286C184.43 21.9308 183.976 22.695 183.642 23.6263C183.331 24.5577 183.164 25.5846 183.164 26.7547C183.164 27.901 183.331 28.9517 183.642 29.8831C183.952 30.8144 184.43 31.6025 185.027 32.2472C185.624 32.892 186.364 33.3935 187.248 33.7278ZM192.549 29.9786C192 30.7428 191.212 31.1249 190.209 31.1249C189.182 31.1249 188.394 30.7428 187.821 29.9786C187.272 29.2144 187.009 28.1398 187.009 26.7308C187.009 26.0622 187.081 25.4413 187.224 24.892C187.367 24.3428 187.582 23.889 187.845 23.5069C188.131 23.1249 188.466 22.8383 188.848 22.6472C189.23 22.4562 189.684 22.3607 190.185 22.3607C190.687 22.3607 191.14 22.4562 191.522 22.6472C191.928 22.8383 192.263 23.1249 192.525 23.5069C192.788 23.889 193.003 24.3428 193.146 24.892C193.29 25.4413 193.361 26.0383 193.361 26.7308C193.361 28.1398 193.099 29.2144 192.549 29.9786Z" fill="#6D6D6D"/>
<path d="M212.609 33.919H208.955V31.6264H208.716C208.382 32.4623 207.881 33.107 207.188 33.5608C206.519 34.0145 205.636 34.2294 204.537 34.2294C203.773 34.2294 203.081 34.11 202.46 33.8712C201.839 33.6324 201.313 33.2981 200.884 32.8444C200.454 32.3906 200.119 31.8414 199.881 31.1727C199.642 30.5041 199.522 29.7638 199.522 28.9518V19.6384H203.296V27.9966C203.296 29.9787 204.179 30.9817 205.922 30.9817C206.854 30.9817 207.594 30.719 208.072 30.1697C208.573 29.6205 208.812 28.8563 208.812 27.9011V19.6145H212.585V33.919H212.609Z" fill="#6D6D6D"/>
<path fill-rule="evenodd" clip-rule="evenodd" d="M226.412 19.8772C225.696 19.5429 224.884 19.3757 223.976 19.3757C223.499 19.3757 223.021 19.4235 222.567 19.5668C222.137 19.6623 221.731 19.8533 221.349 20.0683C220.991 20.2832 220.633 20.5698 220.346 20.8802C220.036 21.1907 219.797 21.5489 219.606 21.9548H219.367V19.6145H215.713V38.6713H219.487V31.722H219.725C220.084 32.4623 220.633 33.0593 221.373 33.4892C222.137 33.919 223.021 34.1339 224.048 34.1339C224.955 34.1339 225.743 33.9668 226.46 33.6324C227.176 33.2981 227.773 32.7966 228.275 32.1757C228.776 31.5548 229.158 30.7668 229.421 29.8593C229.684 28.9519 229.827 27.925 229.827 26.7548C229.827 25.6086 229.684 24.5578 229.421 23.6504C229.134 22.7429 228.752 21.9787 228.251 21.3339C227.749 20.6892 227.128 20.2116 226.412 19.8772ZM224.072 30.6951C223.666 30.8862 223.212 30.9817 222.71 30.9817C222.209 30.9817 221.755 30.8862 221.373 30.6713C220.967 30.4802 220.633 30.1936 220.346 29.8354C220.06 29.4772 219.845 29.0474 219.701 28.522C219.534 27.9966 219.463 27.4235 219.463 26.7548C219.463 26.1101 219.558 25.513 219.701 24.9877C219.845 24.4623 220.06 24.0086 220.346 23.6504C220.633 23.2922 220.967 23.0056 221.373 22.8145C221.779 22.6235 222.233 22.528 222.734 22.528C223.236 22.528 223.666 22.6235 224.072 22.8145C224.478 23.0056 224.812 23.2922 225.099 23.6504C225.385 24.0086 225.6 24.4384 225.743 24.9638C225.887 25.4892 225.958 26.0623 225.958 26.731C225.958 27.3996 225.887 27.9966 225.743 28.522C225.576 29.0474 225.385 29.5011 225.099 29.8593C224.812 30.2175 224.478 30.5041 224.072 30.6951Z" fill="#6D6D6D"/>
<defs>
<linearGradient id="paint0_linear_353_3412" x1="-2.93426" y1="45.5792" x2="31.8878" y2="53.0417" gradientUnits="userSpaceOnUse">
<stop stop-color="#EB8900"/>
<stop offset="0.2771" stop-color="#F1A600"/>
<stop offset="0.521" stop-color="#F5B800"/>
<stop offset="0.6967" stop-color="#F6BE00"/>
<stop offset="0.7733" stop-color="#F6B900"/>
<stop offset="0.9997" stop-color="#F5AD00"/>
</linearGradient>
<linearGradient id="paint1_linear_353_3412" x1="-3.92464" y1="45.1031" x2="36.7236" y2="51.7035" gradientUnits="userSpaceOnUse">
<stop stop-color="#EB8900"/>
<stop offset="0.2771" stop-color="#F1A600"/>
<stop offset="0.521" stop-color="#F5B800"/>
<stop offset="0.6967" stop-color="#F6BE00"/>
<stop offset="0.7733" stop-color="#F6B900"/>
<stop offset="0.9997" stop-color="#F5AD00"/>
</linearGradient>
<linearGradient id="paint2_linear_353_3412" x1="-5.20904" y1="43.8461" x2="44.5511" y2="50.0891" gradientUnits="userSpaceOnUse">
<stop stop-color="#EB8900"/>
<stop offset="0.2771" stop-color="#F1A600"/>
<stop offset="0.521" stop-color="#F5B800"/>
<stop offset="0.6967" stop-color="#F6BE00"/>
<stop offset="0.7733" stop-color="#F6B900"/>
<stop offset="0.9997" stop-color="#F5AD00"/>
</linearGradient>
</defs>
</svg>
